Homework #3: Penalized Regression
…
RMSE.mu %>% arrange(RMSE)

# A tibble: 21 × 3
  alpha  RMSE RMSE.median
  <dbl> <dbl>       <dbl>
1  1     39.8        39.8
2  0.95  39.8        39.8
3  0.9   39.8        39.8
4  0.85  39.8        39.8
5  0.8   39.8        39.8
6  0.75  39.8        39.8
# ℹ 15 more rows
…
