Homework #1: Supervised Learning
…
Solution

n_samps <- 100 
st_dev <- 0.5     

gen_data <- tibble(
  x = rnorm(n_samps, mean = 0, sd = 1),           
  err = rnorm(n_samps, mean = 0, sd = st_dev), 
  y = -1 + 0.5 * x + 0.2 * x^2 + err
) %>%
  select(-err)

print(gen_data)

# A tibble: 100 × 2
         x        y
     <dbl>    <dbl>
 1 -0.161  -0.523  
 2 -0.0836 -0.00729
 3 -1.63   -1.70   
 4 -0.393  -1.57   
 5  0.432  -1.01   
 6  1.05   -0.294  
 7 -0.892  -1.30   
 8  1.85    0.370  
 9  0.634   0.530  
10 -1.12   -2.18   
# ℹ 90 more rows
…
